…
``` r
nrow(parking_meters) #10032 rows
```

    ## [1] 10032

``` r
parking_meters %>% select(credit_card, pay_phone, longitude, latitude) #to see these values, since I oculdn't see them before
```

    ## # A tibble: 10,032 x 4
    ##    credit_card pay_phone longitude latitude
    ##    <chr>       <chr>         <dbl>    <dbl>
    ##  1 No          66890         -123.     49.3
    ##  2 Yes         59916         -123.     49.3
    ##  3 No          57042         -123.     49.3
    ##  4 No          57159         -123.     49.3
    ##  5 No          51104         -123.     49.3
    ##  6 No          60868         -123.     49.3
    ##  7 No          60810         -123.     49.3
    ##  8 No          60577         -123.     49.3
    ##  9 No          52884         -123.     49.3
    ## 10 No          66822         -123.     49.3
    ## # ... with 10,022 more rows
…
``` r
nrow(vancouver_trees) #146611
```

    ## [1] 146611

``` r
vancouver_trees %>% group_by(species_name) %>% summarise(n=n()) #to look at the number of trees per species
```

    ## # A tibble: 283 x 2
    ##    species_name       n
    ##    <chr>          <int>
    ##  1 ABIES            139
    ##  2 ACERIFOLIA   X  1724
    ##  3 ACUMINATA          7
    ##  4 ACUTISSIMA       526
    ##  5 AILANTHIFOLIA      5
    ##  6 ALBA              26
    ##  7 ALBA-SINENSIS      3
    ##  8 ALNIFOLIA        274
    ##  9 ALPINUM            1
    ## 10 ALTISSIMA          4
    ## # ... with 273 more rows
…
